…
    ## [1] 65.04679

The average baseline age is 65.04679 by average all participants’
baseline age.

``` r
filter(baseline_df, sex == "Female" & apoe4 == "Yes")             #select females who are apoe4 carrier
```

    ## # A tibble: 63 × 6
    ##       id current_age sex    education apoe4 age_at_onset
    ##    <dbl>       <dbl> <chr>      <dbl> <chr>        <dbl>
    ##  1     1        63.1 Female        16 Yes           NA  
    ##  2     2        65.6 Female        20 Yes           NA  
    ##  3    22        67.3 Female        20 Yes           74.6
    ##  4    26        64.8 Female        20 Yes           71.1
    ##  5    34        64.8 Female        16 Yes           NA  
    ##  6    39        68.3 Female        16 Yes           70.2
    ##  7    43        67.1 Female        16 Yes           71.6
    ##  8    47        66.1 Female        12 Yes           NA  
    ##  9    50        67.6 Female        18 Yes           NA  
    ## 10    52        63.2 Female        16 Yes           NA  
    ## # ℹ 53 more rows

``` r
filter(baseline_df, sex == "Female")                                                     #select female
```

    ## # A tibble: 211 × 6
    ##       id current_age sex    education apoe4 age_at_onset
    ##    <dbl>       <dbl> <chr>      <dbl> <chr>        <dbl>
    ##  1     1        63.1 Female        16 Yes           NA  
    ##  2     2        65.6 Female        20 Yes           NA  
    ##  3     4        69.8 Female        16 No            NA  
    ##  4     8        67.2 Female        18 No            NA  
    ##  5     9        66.7 Female        16 No            NA  
    ##  6    10        64.1 Female        18 No            NA  
    ##  7    11        69.5 Female        16 No            NA  
    ##  8    12        66.2 Female        18 No            NA  
    ##  9    14        58.4 Female        20 No            66.2
    ## 10    16        64.9 Female        16 No            NA  
    ## # ℹ 201 more rows
…
